%YAML 1.1
%TAG !u! tag:unity3d.com,2011:
--- !u!1045 &1
EditorBuildSettings:
  m_ObjectHideFlags: 0
  serializedVersion: 2
  m_Scenes:
  - enabled: 1
    path: Assets/Scenes/StartMenu.unity
    guid: cb5489c1b44210a409bd08e12e7da6f4
  - enabled: 1
    path: Assets/Scenes/MainLevel.unity
    guid: 9fc0d4010bbf28b4594072e72b8655ab
  m_configObjects: {}
